{
  "Augsburger Allgemeine": {
    "domain": "augsburger-allgemeine.de",
    "allow_cookies": 1,
    "block_regex": "(\\.tinypass\\.com\\/|cdn\\.ampproject\\.org\\/v\\d\\/amp-subscriptions-.+\\.js)",
    "useragent": "googlebot",
    "upd_version": "3.5.3.1"
  },
  "Barron's": {
    "domain": "barrons.com",
    "allow_cookies": 1,
    "block_regex": "(cdn\\.cxense\\.com\\/|cdn\\.ampproject\\.org\\/v\\d\\/amp-subscriptions-.+\\.js)",
    "upd_version": "3.5.1.7"
  },
  "Bloomberg": {
    "domain": "bloomberg.com",
    "allow_cookies": 1,
    "block_regex": "(\\.cm\\.bloomberg\\.com\\/|assets\\.bwbx\\.io\\/s\\d\\/javelin\\/.+\\/transporter\\/)",
    "upd_version": "3.2.7.1"
  },
  "Die Zeit": {
    "domain": "zeit.de",
    "allow_cookies": 1,
    "add_ext_link": "aside#paywall|article",
    "add_ext_link_type": "archive.is",
    "upd_version": "3.5.1.2"
  },
  "Funke Mediengruppe": {
    "domain": "###_de_funke_medien",
    "group": [
      "ikz-online.de",
      "nrz.de",
      "waz.de",
      "wp.de",
      "wr.de"
    ],
    "allow_cookies": 1,
    "useragent": "googlebot",
    "block_regex": "\\.tinypass\\.com\\/",
    "upd_version": "3.5.2.2"
  },
  "Grupo Abril": {
    "domain": "abril.com.br",
    "allow_cookies": 1,
    "block_regex": "\\.abril\\.com\\.br\\/.+\\/abril-paywall\\/",
    "upd_version": "3.5.2.1"
  },
  "Haaretz Group": {
    "domain": "###_il_haaretz_group",
    "group": [
      "haaretz.co.il",
      "haaretz.com",
      "themarker.com"
    ],
    "allow_cookies": 1,
    "block_regex": "\\.co(m|\\.il)\\/.+\\/magazine\\/page-.+\\.js",
    "useragent": "semrushbot",
    "cs_dompurify": 1,
    "upd_version": "3.5.2.3"
  },
  "Hearst Communications magazines": {
    "domain": "###_usa_hearst_comm_mag",
    "group": [
      "bicycling.com",
      "cosmopolitan.com",
      "countryliving.com",
      "delish.com",
      "elle.com",
      "elledecor.com",
      "esquire.com",
      "goodhousekeeping.com",
      "harpersbazaar.com",
      "housebeautiful.com",
      "menshealth.com",
      "oprahdaily.com",
      "popularmechanics.com",
      "prevention.com",
      "roadandtrack.com",
      "runnersworld.com",
      "townandcountrymag.com",
      "womenshealthmag.com"
    ],
    "allow_cookies": 1,
    "block_regex": "(\\.com\\/_assets\\/jam\\/|\\.ensighten\\.com\\/.+\\/Bootstrap\\.js)",
    "upd_version": "3.5.1.5"
  },
  "Het Laatste Nieuws": {
    "domain": "hln.be",
    "allow_cookies": 1,
    "add_ext_link": "div#remaining-paid-content|div.article__body",
    "add_ext_link_type": "archive.is",
    "block_regex": "temptation\\.hln\\.be\\/temptation\\.js",
    "upd_version": "3.5.1.5"
  },
  "Landwirtschaftsverlag": {
    "domain": "###_de_lv",
    "group": [
      "profi.de",
      "topagrar.com",
      "wochenblatt.com"
    ],
    "allow_cookies": 1,
    "exception": [{
        "domain": "topagrar.com",
        "allow_cookies": 1,
        "block_js_inline": "\\.topagrar\\.com\\/.+\\/news\\/"
      }
    ],
    "upd_version": "3.5.2.4"
  },
  "Mediahuis Nederland Regional": {
    "domain": "###_nl_mediahuis_region",
    "group": [
      "gooieneemlander.nl",
      "haarlemsdagblad.nl",
      "ijmuidercourant.nl",
      "leidschdagblad.nl",
      "noordhollandsdagblad.nl"
    ],
    "allow_cookies": 1,
    "add_ext_link": "div[data-auth-root='paywall']|article",
    "add_ext_link_type": "archive.is",
    "upd_version": "3.5.1.4"
  },
  "Newsweek.pl": {
    "domain": "newsweek.pl",
    "allow_cookies": 1,
    "add_ext_link": "div#contentPremiumPlaceholder|div#article-content-body",
    "add_ext_link_type": "archive.is",
    "upd_version": "3.5.2.2"
  },
  "Stratfor": {
    "domain": "stratfor.com",
    "allow_cookies": 1,
    "useragent": "googlebot",
    "upd_version": "3.5.1.8"
  },
  "The (New Orleans) Advocate": {
    "domain": "###_usa_theadvocate",
    "group": [
      "nola.com",
      "theadvocate.com"
    ],
    "allow_cookies": 1,
    "block_regex": "(\\.{domain}\\/(script||.+\\/tncms\\/api\\/access\\..+)\\.js|js\\.matheranalytics\\.com\\/)",
    "upd_version": "3.5.1.7"
  },
  "The New York Times": {
    "domain": "nytimes.com",
    "allow_cookies": 1,
    "block_regex": "(\\.nytimes\\.com\\/meter\\.js|mwcm\\.nyt\\.com\\/.+\\.js|cooking\\.nytimes\\.com\\/api\\/.+\\/access)",
    "useragent": "googlebot",
    "upd_version": "3.1.4.0"
  },
  "Tribune Publishing Company": {
    "domain": "###_usa_tribune",
    "group": [
      "baltimoresun.com",
      "capitalgazette.com",
      "chicagotribune.com",
      "courant.com",
      "dailypress.com",
      "mcall.com",
      "nydailynews.com",
      "orlandosentinel.com",
      "pilotonline.com",
      "sun-sentinel.com"
    ],
    "allow_cookies": 1,
    "block_regex": "(\\.{domain}\\/(script|.+\\/loader-wp\\/static\\/loader\\.min)\\.js)",
    "upd_version": "3.5.3.2"
  },
  "WirtschaftsWoche": {
    "domain": "wiwo.de",
    "allow_cookies": 1,
    "add_ext_link": "div.o-paywall|article",
    "add_ext_link_type": "archive.is",
    "upd_version": "3.5.1.3"
  }
}
